Individual #2
…
offBio <- left_join(offClean, bioClean, by='Name')

## Warning: Column `Name` joining factors with different levels, coercing to
## character vector

offBio

## # A tibble: 195 x 19
##    Name  Opponent_Oppone Rushing_ATT Rushing_YDS Rushing_TD Receiving_REC
##    <chr> <fct>                  <dbl>       <dbl>      <dbl>         <dbl>
##  1 Aker UNI                        0           0          0             1
##  2 Aker Iowa                       0           0          0             0
##  3 Aker ULM                        1           8          0             0
##  4 Aker Baylor                     0           0          0             0
##  5 Aker TCU                        0           0          0             1
##  6 Aker West Virginia              0           0          0             0
##  7 Aker Texas Tech                 0           0          0             0
##  8 Aker Oklahoma State             0           0          0             4
##  9 Aker Oklahoma                   0           0          0             0
## 10 Aker Texas                      0           0          0             1
## #  with 185 more rows, and 13 more variables: Receiving_YDS <dbl>,
## #   Receiving_TD <dbl>, `Passing_CMP-ATT` <dbl>, Passing_YDS <dbl>,
## #   Passing_TD <dbl>, Passing_INT <dbl>, Position <chr>, Height <dbl>,
## #   Weight <dbl>, Class <chr>, City <chr>, State <chr>, Highschool <chr>
…
